%YAML 1.1
%TAG !u! tag:unity3d.com,2011:
--- !u!114 &11400000
MonoBehaviour:
  m_ObjectHideFlags: 0
  m_PrefabParentObject: {fileID: 0}
  m_PrefabInternal: {fileID: 0}
  m_GameObject: {fileID: 0}
  m_Enabled: 1
  m_EditorHideFlags: 0
  m_Script: {fileID: 11500000, guid: 46a232d65996b477786b4018d1e8f9f4, type: 3}
  m_Name: GameScenes
  m_EditorClassIdentifier: 
  scenes:
  - name: 0
    mode: 0
    levelName: 0_splash
  - name: 1
    mode: 0
    levelName: 0_title
  - name: 2
    mode: 1
    levelName: 1_vr_intro_video
  - name: 3
    mode: 0
    levelName: 2_menu_unlock
  - name: 4
    mode: 0
    levelName: 3_menu_info
  - name: 5
    mode: 1
    levelName: 4_vr_full
  - name: 6
    mode: 2
    levelName: 5_ar_full
